{
    "data": [
        {
            "id": "1123",
            "quantities": {
                "apples": 10,
                "dollars": 100
            },
            "sender": "abcd",
            "recipient": "efgh",
            "timestamp": "2022-12-02 21:23:25.350964 -0500 EST m=+0.001000101",
            "self": "https://example.com/transactions/1123"
        }   
    ],
    "count": 100,
    "offset": 1,
    "limit": 1,
    "prev": "https://example.com/transactions?offset=0&limit=1",
    "next": "https://example.com/transactions?offset=2&limit=1",
    "self": "https://example.com/transactions"       
}

